%YAML 1.1
%TAG !u! tag:unity3d.com,2011:
--- !u!1045 &1
EditorBuildSettings:
  m_ObjectHideFlags: 0
  serializedVersion: 2
  m_Scenes:
  - enabled: 1
    path: Assets/Scenes/mainMenu.unity
    guid: 8459d43bccbafdc4b8792863abb466fe
  - enabled: 1
    path: Assets/Scenes/trainSigns.unity
    guid: 4b6057f2dffbfe24485fa3491dc7c4a7
  - enabled: 1
    path: Assets/Scenes/recSigns.unity
    guid: acc3ff5691949be44b980d25002e35b0
  - enabled: 1
    path: Assets/Scenes/viewHandData.unity
    guid: fb0b646a57372ed46b0306c9370bf30d
  m_configObjects: {}
